# Test Topology File
# Comment lines are denoted by placing "#" in column 1
# Attributes are specified on separate lines in the format attribute:value

# Protocol simulation mode, string: {LEACH|LEACH-R}
mode:LEACH

# Desired percentage of cluster heads each round, double, range: (0,1)
p:0.05

# Maximum number of rounds, integer (typically at least 2/P)
rounds:40

# Node topology definition
# node:x,y,t
# where x is an integer x coordinate
#       y is an integer y coordinate
#       t is an integer denoting type (used by LEACH-R algorithm)
#           t=0: base station
#           t=1:  standard
#           t=2:  hardened/radiation resistant
node:3000,750,0 # base station
node:100,50,1
node:200,-1100,1
node:300,-450,1
node:300,-650,1
node:400,350,1
node:400,200,1
node:0,200,1
node:-100,200,1
node:-50,150,1
node:-1250,-920,1
node:1840,-1000,1
node:225,-1875,1
node:100,375,1
node:960,-1560,1
node:730,-50,1
node:1840,-1000,1
node:-1350,625,1
node:810,1525,1
node:-1650,-315,1
node:1975,-50,1
node:-925,1100,1
node:-1750,-25,1
node:-1250,950,1
node:-525,1975,1
node:-175,900,1
node:-1206,-400,1
node:-1100,-1800,1
node:-600,1025,1
node:-1200,-200,1
node:-121,1255,2
node:670,-84,2
node:42,963,2
node:-1056,977,2
node:108,1320,2
node:-904,-653,2
node:-360,-193,2
node:105,-797,2
node:403,-1079,2
node:-154,951,2
node:480,-936,2
node:-1087,181,2
node:-733,877,2
node:-1266,12,2
node:1344,557,2
node:-138,921,2

node:618,-51,1
node:952,-111,1
node:-239,-139,1
node:-215,-1351,2
node:-264,166,1
node:423,-973,1
node:943,601,1
node:1094,543,1
node:312,-825,1
node:-699,1071,1
node:829,-479,1
node:732,698,1
node:-973,-802,1
node:15,362,1
node:-945,-1082,1
node:-373,-1200,1
node:1054,327,1
node:358,-173,2
node:606,28,1
node:-463,566,1
node:231,-471,1
node:683,1248,1
node:1408,-506,1
node:985,479,1
node:-618,135,1
node:-1176,394,1
node:-842,-23,1
node:716,-1017,1
node:-1151,437,1
node:197,-1142,1
node:413,67,1
node:221,837,1
node:530,-31,1
node:-327,-727,1
node:184,-1315,1
node:30,-670,1
node:-308,-1168,1
node:833,-576,1
node:558,-1059,1
node:-455,-755,1
node:-993,300,1
node:1334,-261,1
node:135,1205,1
node:-63,-576,1
node:1217,-173,1
node:498,-375,1
node:-81,1043,1
node:-489,896,1
node:-753,1158,1
node:747,-662,1
node:-363,-636,1
node:1320,245,1
node:1255,-658,1
node:17,1289,1
node:-193,-1112,1
node:-1432,268,1
node:-178,201,1
node:550,220,1
node:235,-90,1
node:612,-1200,1
node:485,1387,1
node:308,606,1
node:1209,-445,1
node:1230,761,1
node:-501,-1198,1
node:-22,662,1
node:-49,937,1
node:-964,1002,1
node:380,1021,1
node:83,-549,1
node:-23,-767,1
node:-317,-513,1
node:-165,-790,1
node:404,-1353,1
node:-498,647,1
node:-843,-280,1
node:1018,-35,1
node:-822,-893,1
node:84,-457,1
node:662,-622,1
node:14,1494,1
node:1055,315,2
node:218,1410,1
node:-610,765,1
node:-422,-983,1
node:1007,-495,2
node:-1366,580,1
node:-1223,532,1
node:-445,-924,1
node:862,-1196,1
node:-1261,107,1
node:-347,-17,1
node:840,-1240,1
node:-745,-938,1
node:-519,-1047,1
node:1068,197,1
node:870,1049,2
node:364,1429,1
node:-479,1277,1
node:1061,537,1
node:-833,-610,1
node:1379,225,1
node:313,33,1
node:-791,194,1
node:-624,1257,1
node:-664,1040,1
node:1183,-910,1
node:65,-69,1
node:4,956,1
node:-1001,-85,1
node:304,692,1
node:36,279,1
node:-1202,378,1
node:-397,350,1
node:1250,-464,1
node:207,915,1
node:-314,-239,1
node:281,-933,1
node:1135,751,1
node:619,-416,1
node:-699,-1177,1
node:-1134,-660,2
node:187,-323,1
node:-84,220,1
node:408,1365,1
node:344,-464,1
node:-141,-109,1
node:65,-322,1
node:997,896,1
node:-607,-902,1
node:-561,383,1
node:325,-596,1
node:772,-337,1
node:771,518,1
node:120,595,1
node:247,979,1
node:-822,-801,1
node:820,-1054,1
node:678,-170,1
node:796,819,1
node:376,-991,1
node:-994,-491,1
node:1379,-221,1
node:1293,-367,1
node:837,-432,1
node:-499,570,2
node:-636,222,1
node:459,274,1
node:202,695,1
node:4,597,1
node:-624,694,1
node:1015,-24,1
node:-5,784,1
node:1115,-376,1
node:549,1070,1
node:1061,1054,1
node:294,-1046,2
node:927,-1087,1
node:-998,867,1